# 3ds Max Wavefront OBJ Exporter v0.97b - (c)2007 guruware
# File Created: 07.01.2010 10:46:20

newmtl _jtl2wire_198224087
	Ns 0.000000
	Ni 1.500000
	d 1.000000
	Tr 0.000000
	Tf 1.000000 1.000000 1.000000 
	illum 2
	Ka 0.776471 0.878431 0.341176
	Kd 0.776471 0.878431 0.341176
	Ks 0.000000 0.000000 0.000000
	Ke 0.000000 0.000000 0.000000
	map_Ka jtl2.jpg
	map_Kd jtl2.jpg
